test_apps/python_app/vendor/vcd/example3.vcd
$date
	Tue Apr 11 20:36:37 2017
$end
$version
	ModelSim Version 10.3c
$end
$timescale
	1ns
$end

$scope module mp_struct_tb $end
$var wire 1 ! clk $end
$var wire 1 " clr $end
$var wire 1 # hlt $end
$var wire 1 $ q3 [7] $end
$var wire 1 % q3 [6] $end
$var wire 1 & q3 [5] $end
$var wire 1 ' q3 [4] $end
$var wire 1 ( q3 [3] $end
$var wire 1 ) q3 [2] $end
$var wire 1 * q3 [1] $end
$var wire 1 + q3 [0] $end

$scope module uut $end
$var wire 1 $ q3 [7] $end
$var wire 1 % q3 [6] $end
$var wire 1 & q3 [5] $end
$var wire 1 ' q3 [4] $end
$var wire 1 ( q3 [3] $end
$var wire 1 ) q3 [2] $end
$var wire 1 * q3 [1] $end
$var wire 1 + q3 [0] $end
$var wire 1 , Ce $end
$var wire 1 - D [3] $end
$var wire 1 . D [2] $end
$var wire 1 / D [1] $end
$var wire 1 0 D [0] $end
$var wire 1 1 Eu $end
$var wire 1 2 Lm $end
$var wire 1 3 Q2 [3] $end
$var wire 1 4 Q2 [2] $end
$var wire 1 5 Q2 [1] $end
$var wire 1 6 Q2 [0] $end
$var wire 1 7 Su $end
$var wire 1 8 W [7] $end
$var wire 1 9 W [6] $end
$var wire 1 : W [5] $end
$var wire 1 ; W [4] $end
$var wire 1 < W [3] $end
$var wire 1 = W [2] $end
$var wire 1 > W [1] $end
$var wire 1 ? W [0] $end
$var wire 1 @ add $end
$var wire 1 A con [11] $end
$var wire 1 B con [10] $end
$var wire 1 C con [9] $end
$var wire 1 D con [8] $end
$var wire 1 E con [7] $end
$var wire 1 F con [6] $end
$var wire 1 G con [5] $end
$var wire 1 H con [4] $end
$var wire 1 I con [3] $end
$var wire 1 J con [2] $end
$var wire 1 K con [1] $end
$var wire 1 L con [0] $end
$var wire 1 M Cp $end
$var wire 1 N d1 [7] $end
$var wire 1 O d1 [6] $end
$var wire 1 P d1 [5] $end
$var wire 1 Q d1 [4] $end
$var wire 1 R d1 [3] $end
$var wire 1 S d1 [2] $end
$var wire 1 T d1 [1] $end
$var wire 1 U d1 [0] $end
$var wire 1 V Ea $end
$var wire 1 W Ei $end
$var wire 1 X Ep $end
$var wire 1 Y La $end
$var wire 1 Z Lb $end
$var wire 1 [ lda $end
$var wire 1 \ Li $end
$var wire 1 ] Lo $end
$var wire 1 ^ output $end
$var wire 1 _ q [3] $end
$var wire 1 ` q [2] $end
$var wire 1 a q [1] $end
$var wire 1 b q [0] $end
$var wire 1 c q1 [7] $end
$var wire 1 d q1 [6] $end
$var wire 1 e q1 [5] $end
$var wire 1 f q1 [4] $end
$var wire 1 g q1 [3] $end
$var wire 1 h q1 [2] $end
$var wire 1 i q1 [1] $end
$var wire 1 j q1 [0] $end
$var wire 1 k q_alu [7] $end
$var wire 1 l q_alu [6] $end
$var wire 1 m q_alu [5] $end
$var wire 1 n q_alu [4] $end
$var wire 1 o q_alu [3] $end
$var wire 1 p q_alu [2] $end
$var wire 1 q q_alu [1] $end
$var wire 1 r q_alu [0] $end
$var wire 1 s q_c [3] $end
$var wire 1 t q_c [2] $end
$var wire 1 u q_c [1] $end
$var wire 1 v q_c [0] $end
$var wire 1 w q_w [3] $end
$var wire 1 x q_w [2] $end
$var wire 1 y q_w [1] $end
$var wire 1 z q_w [0] $end
$var wire 1 { sub $end

$scope module Accumulator $end
$var wire 1 8 d [7] $end
$var wire 1 9 d [6] $end
$var wire 1 : d [5] $end
$var wire 1 ; d [4] $end
$var wire 1 < d [3] $end
$var wire 1 = d [2] $end
$var wire 1 > d [1] $end
$var wire 1 ? d [0] $end
$var wire 1 k q_alu [7] $end
$var wire 1 l q_alu [6] $end
$var wire 1 m q_alu [5] $end
$var wire 1 n q_alu [4] $end
$var wire 1 o q_alu [3] $end
$var wire 1 p q_alu [2] $end
$var wire 1 q q_alu [1] $end
$var wire 1 r q_alu [0] $end
$var wire 1 N q_data [7] $end
$var wire 1 O q_data [6] $end
$var wire 1 P q_data [5] $end
$var wire 1 Q q_data [4] $end
$var wire 1 R q_data [3] $end
$var wire 1 S q_data [2] $end
$var wire 1 T q_data [1] $end
$var wire 1 U q_data [0] $end
$upscope $end

$scope module AddSub $end
$var wire 1 k A [7] $end
$var wire 1 l A [6] $end
$var wire 1 m A [5] $end
$var wire 1 n A [4] $end
$var wire 1 o A [3] $end
$var wire 1 p A [2] $end
$var wire 1 q A [1] $end
$var wire 1 r A [0] $end
$var wire 1 c B [7] $end
$var wire 1 d B [6] $end
$var wire 1 e B [5] $end
$var wire 1 f B [4] $end
$var wire 1 g B [3] $end
$var wire 1 h B [2] $end
$var wire 1 i B [1] $end
$var wire 1 j B [0] $end
$var wire 1 8 S [7] $end
$var wire 1 9 S [6] $end
$var wire 1 : S [5] $end
$var wire 1 ; S [4] $end
$var wire 1 < S [3] $end
$var wire 1 = S [2] $end
$var wire 1 > S [1] $end
$var wire 1 ? S [0] $end
$var wire 1 | sum [7] $end
$var wire 1 } sum [6] $end
$var wire 1 ~ sum [5] $end
$var wire 1 !! sum [4] $end
$var wire 1 "! sum [3] $end
$var wire 1 #! sum [2] $end
$var wire 1 $! sum [1] $end
$var wire 1 %! sum [0] $end
$var wire 1 &! sub [7] $end
$var wire 1 '! sub [6] $end
$var wire 1 (! sub [5] $end
$var wire 1 )! sub [4] $end
$var wire 1 *! sub [3] $end
$var wire 1 +! sub [2] $end
$var wire 1 ,! sub [1] $end
$var wire 1 -! sub [0] $end
$upscope $end

$scope module BReg $end
$var wire 1 8 d [7] $end
$var wire 1 9 d [6] $end
$var wire 1 : d [5] $end
$var wire 1 ; d [4] $end
$var wire 1 < d [3] $end
$var wire 1 = d [2] $end
$var wire 1 > d [1] $end
$var wire 1 ? d [0] $end
$var wire 1 c q [7] $end
$var wire 1 d q [6] $end
$var wire 1 e q [5] $end
$var wire 1 f q [4] $end
$var wire 1 g q [3] $end
$var wire 1 h q [2] $end
$var wire 1 i q [1] $end
$var wire 1 j q [0] $end
$upscope $end

$scope module CPU $end
$var wire 1 A CON [11] $end
$var wire 1 B CON [10] $end
$var wire 1 C CON [9] $end
$var wire 1 D CON [8] $end
$var wire 1 E CON [7] $end
$var wire 1 F CON [6] $end
$var wire 1 G CON [5] $end
$var wire 1 H CON [4] $end
$var wire 1 I CON [3] $end
$var wire 1 J CON [2] $end
$var wire 1 K CON [1] $end
$var wire 1 L CON [0] $end
$upscope $end

$scope module IRReg $end
$var wire 1 8 d [7] $end
$var wire 1 9 d [6] $end
$var wire 1 : d [5] $end
$var wire 1 ; d [4] $end
$var wire 1 < d [3] $end
$var wire 1 = d [2] $end
$var wire 1 > d [1] $end
$var wire 1 ? d [0] $end
$var wire 1 w q_w [3] $end
$var wire 1 x q_w [2] $end
$var wire 1 y q_w [1] $end
$var wire 1 z q_w [0] $end
$var wire 1 s q_c [3] $end
$var wire 1 t q_c [2] $end
$var wire 1 u q_c [1] $end
$var wire 1 v q_c [0] $end
$upscope $end

$scope module IRDecoder $end
$var wire 1 s q_c [3] $end
$var wire 1 t q_c [2] $end
$var wire 1 u q_c [1] $end
$var wire 1 v q_c [0] $end
$var wire 1 .! instruction [5] $end
$var wire 1 /! instruction [4] $end
$var wire 1 0! instruction [3] $end
$var wire 1 1! instruction [2] $end
$var wire 1 2! instruction [1] $end
$var wire 1 3! instruction [0] $end
$upscope $end

$scope module MemoryAddressReg $end
$var wire 1 - D [3] $end
$var wire 1 . D [2] $end
$var wire 1 / D [1] $end
$var wire 1 0 D [0] $end
$var wire 1 3 Q [3] $end
$var wire 1 4 Q [2] $end
$var wire 1 5 Q [1] $end
$var wire 1 6 Q [0] $end
$upscope $end

$scope module ProgramCounter $end
$var wire 1 _ q [3] $end
$var wire 1 ` q [2] $end
$var wire 1 a q [1] $end
$var wire 1 b q [0] $end
$var wire 1 4! count [3] $end
$var wire 1 5! count [2] $end
$var wire 1 6! count [1] $end
$var wire 1 7! count [0] $end
$upscope $end

$scope module ROM $end
$var wire 1 3 address [3] $end
$var wire 1 4 address [2] $end
$var wire 1 5 address [1] $end
$var wire 1 6 address [0] $end
$var wire 1 8 data_out [7] $end
$var wire 1 9 data_out [6] $end
$var wire 1 : data_out [5] $end
$var wire 1 ; data_out [4] $end
$var wire 1 < data_out [3] $end
$var wire 1 = data_out [2] $end
$var wire 1 > data_out [1] $end
$var wire 1 ? data_out [0] $end
$upscope $end

$scope module OReg $end
$var wire 1 N d [7] $end
$var wire 1 O d [6] $end
$var wire 1 P d [5] $end
$var wire 1 Q d [4] $end
$var wire 1 R d [3] $end
$var wire 1 S d [2] $end
$var wire 1 T d [1] $end
$var wire 1 U d [0] $end
$var wire 1 $ q [7] $end
$var wire 1 % q [6] $end
$var wire 1 & q [5] $end
$var wire 1 ' q [4] $end
$var wire 1 ( q [3] $end
$var wire 1 ) q [2] $end
$var wire 1 * q [1] $end
$var wire 1 + q [0] $end
$upscope $end
$upscope $end
$upscope $end
$enddefinitions $end
#0
$dumpvars
0!
1"
0#
1,
01
02
07
0@
0M
0V
1W
1X
1Y
1Z
1[
1\
1]
0^
0{
z8
z9
z:
z;
0<
0=
0>
0?
0A
1B
0C
1D
1E
1F
1G
0H
0I
0J
1K
1L
0.!
0/!
00!
01!
02!
13!
0$
0%
0&
0'
0(
0)
0*
0+
0-
0.
0/
00
03
04
05
06
0N
0O
0P
0Q
0R
0S
0T
0U
0_
0`
0a
0b
0c
0d
0e
0f
0g
0h
0i
0j
0k
0l
0m
0n
0o
0p
0q
0r
0s
0t
0u
0v
zw
zx
zy
zz
0|
0}
0~
0!!
0"!
0#!
0$!
0%!
0&!
0'!
0(!
0)!
0*!
0+!
0,!
0-!
04!
05!
06!
07!
$end
#250
1!
#500
0!
#750
1!
#1000
0!
#1250
1!
#1500
0!
#1750
1!
#2000
0!
#2250
1!
#2430
0"
#2500
0!
1A
1C
0B
1M
12
0X
zb
za
z`
z_
z?
z>
z=
z<
z0
z/
z.
z-
#2750
1!
#3000
0!
17!
0E
0D
0A
0\
0,
0M
1?
0>
0=
1<
0;
0:
09
08
10
0/
0.
1-
#3250
1!
#3500
0!
0F
0C
1E
1D
0W
02
1\
1,
1z
0y
0x
1w
z?
z>
z=
z<
z;
z:
z9
z8
1?
0>
0=
1<
z0
z/
z.
z-
10
0/
0.
1-
#3750
1!
16
13
#4000
0!
0G
0D
1F
1C
0Y
0,
1W
12
x=
x<
0;
0:
09
08
zz
zy
zx
zw
x.
x-
1=
0<
1.
0-
#4250
1!
1U
1S
1r
1p
1%!
1#!
1-!
1+!
#4500
0!
1G
1D
1Y
1,
z?
z>
z=
z<
z;
z:
z9
z8
z0
z/
z.
z-
#4750
1!
#5000
0!
0C
1B
02
1X
1b
0a
0`
0_
1?
0>
0=
0<
10
0/
0.
0-
#5250
1!
03
#5500
0!
1A
1C
0B
1M
12
0X
zb
za
z`
z_
z?
z>
z=
z<
z0
z/
z.
z-
#5750
1!
#6000
0!
07!
16!
0E
0D
0A
0\
0,
0M
1?
1>
1=
1<
0;
1:
19
18
10
1/
1.
1-
#6250
1!
1u
1t
1s
03!
10!
0[
1^
#6500
0!
0L
1H
1E
1D
0]
1V
1\
1,
z?
z>
z=
z<
z;
z:
z9
z8
z0
z/
z.
z-
#6750
1!
1+
1)
#7000
0!
1L
0H
1]
0V
#7250
1!
#7500
0!
#7750
1!
#8000
0!
0C
1B
02
1X
0b
1a
0`
0_
0?
1>
0=
0<
00
1/
0.
0-
#8250
1!
06
15
#8500
0!
1A
1C
0B
1M
12
0X
zb
za
z`
z_
z?
z>
z=
z<
z0
z/
z.
z-
#8750
1!
#9000
0!
17!
0E
0D
0A
0\
0,
0M
0?
1>
0=
1<
1;
0:
09
08
00
1/
0.
1-
#9250
1!
1v
0u
0t
0s
12!
00!
1@
0^
#9500
0!
0F
0C
1E
1D
0W
02
1\
1,
0z
1y
0x
1w
z?
z>
z=
z<
z;
z:
z9
z8
0?
1>
0=
1<
z0
z/
z.
z-
00
1/
0.
1-
#9750
1!
13
#10000
0!
0K
0D
1F
1C
0Z
0,
1W
12
x?
x=
x<
0;
0:
09
08
zz
zy
zx
zw
x0
x.
x-
1?
1=
0<
10
1.
0-
#10250
1!
1j
1i
1h
0%!
1"!
0-!
1,!
1*!
1)!
1(!
1'!
1&!
#10500
0!
1J
0G
1K
1D
11
0Y
1Z
1,
0?
0>
1<
00
0/
1-
#10750
1!
0U
1R
0r
1o
1%!
1$!
0#!
0"!
1!!
1-!
0,!
0*!
0)!
0(!
0'!
0&!
#11000
0!
0C
1B
0J
1G
02
1X
01
1Y
1b
1a
0`
0_
z?
z>
z=
z<
z;
z:
z9
z8
1?
1>
0=
0<
z0
z/
z.
z-
10
1/
0.
0-
#11250
1!
16
03
#11500
0!
1A
1C
0B
1M
12
0X
zb
za
z`
z_
z?
z>
z=
z<
z0
z/
z.
z-
#11750
1!
#12000
0!
07!
06!
15!
0E
0D
0A
0\
0,
0M
1?
1>
1=
1<
0;
1:
19
18
10
1/
1.
1-
#12250
1!
0v
1u
1t
1s
02!
10!
0@
1^
#12500
0!
0L
1H
1E
1D
0]
1V
1\
1,
z?
z>
z=
z<
z;
z:
z9
z8
z0
z/
z.
z-
#12750
1!
0+
1(
#13000
0!
1L
0H
1]
0V
#13250
1!
#13500
0!
#13750
1!
#14000
0!
0C
1B
02
1X
0b
0a
1`
0_
0?
0>
1=
0<
00
0/
1.
0-
#14250
1!
06
05
14
#14500
0!
1A
1C
0B
1M
12
0X
zb
za
z`
z_
z?
z>
z=
z<
z0
z/
z.
z-
#14750
1!
#15000
0!
17!
0E
0D
0A
0\
0,
0M
1?
1>
0=
1<
1;
0:
09
08
10
1/
0.
1-
#15250
1!
1v
0u
0t
0s
12!
00!
1@
0^
#15500
0!
0F
0C
1E
1D
0W
02
1\
1,
1z
1y
0x
1w
z?
z>
z=
z<
z;
z:
z9
z8
1?
1>
0=
1<
z0
z/
z.
z-
10
1/
0.
1-
#15750
1!
16
15
04
13
#16000
0!
0K
0D
1F
1C
0Z
0,
1W
12
x<
0;
0:
09
08
zz
zy
zx
zw
x-
0<
0-
#16250
1!
0h
1#!
1"!
0!!
0+!
1*!
#16500
0!
1J
0G
1K
1D
11
0Y
1Z
1,
1=
1<
1.
1-
#16750
1!
1U
1T
1r
1q
0%!
0#!
0"!
1!!
0-!
1+!
#17000
0!
0C
1B
0J
1G
02
1X
01
1Y
1b
0a
1`
0_
z?
z>
z=
z<
z;
z:
z9
z8
1?
0>
1=
0<
z0
z/
z.
z-
10
0/
1.
0-
#17250
1!
05
14
03
#17500
0!
1A
1C
0B
1M
12
0X
zb
za
z`
z_
z?
z>
z=
z<
z0
z/
z.
z-
#17750
1!
#18000
0!
07!
16!
0E
0D
0A
0\
0,
0M
0?
0>
1=
1<
0;
1:
09
08
00
0/
1.
1-
#18250
1!
0v
1u
02!
11!
0@
1{
#18500
0!
0F
0C
1E
1D
0W
02
1\
1,
0z
0y
1x
1w
z?
z>
z=
z<
z;
z:
z9
z8
0?
0>
1=
1<
z0
z/
z.
z-
00
0/
1.
1-
#18750
1!
06
13
#19000
0!
0K
0D
1F
1C
0Z
0,
1W
12
x<
0;
0:
09
08
zz
zy
zx
zw
x-
0<
0-
#19250
1!
0j
0i
1h
1%!
1-!
1,!
0+!
#19500
0!
1J
1I
0G
1K
1D
11
17
0Y
1Z
1,
1?
1>
0=
1<
10
1/
0.
1-
#19750
1!
0S
0p
1#!
1"!
0!!
1+!
0*!
#20000
0!
0C
1B
0J
0I
1G
02
1X
01
07
1Y
0b
1a
1`
0_
z?
z>
z=
z<
z;
z:
z9
z8
0?
1>
1=
0<
z0
z/
z.
z-
00
1/
1.
0-
#20250
1!
15
03
#20500
0!
1A
1C
0B
1M
12
0X
zb
za
z`
z_
z?
z>
z=
z<
z0
z/
z.
z-
#20750
1!
#21000
0!
17!
0E
0D
0A
0\
0,
0M
1?
1>
1=
1<
0;
1:
19
18
10
1/
1.
1-
#21250
1!
1t
1s
01!
10!
0{
1^
#21500
0!
0L
1H
1E
1D
0]
1V
1\
1,
z?
z>
z=
z<
z;
z:
z9
z8
z0
z/
z.
z-
#21750
1!
1+
1*
0)
#22000
0!
1L
0H
1]
0V
#22250
1!
#22500
0!
#22750
1!
#23000
0!
0C
1B
02
1X
1b
1a
1`
0_
1?
1>
1=
0<
10
1/
1.
0-
#23250
1!
16
#23500
0!
1A
1C
0B
1M
12
0X
zb
za
z`
z_
z?
z>
z=
z<
z0
z/
z.
z-
#23750
1!
#24000
0!
07!
06!
05!
14!
0E
0D
0A
0\
0,
0M
1?
1>
1=
1<
1;
1:
19
18
10
1/
1.
1-
#24250
1!
1v
00!
1.!
0^
1#
